{
  "project_info": {
    "project_number": "509903634469",
    "project_id": "yelp-test-23c60",
    "storage_bucket": "yelp-test-23c60.appspot.com"
  },
  "client": [
    {
      "client_info": {
        "mobilesdk_app_id": "1:509903634469:android:ac4ac9c9226bf0d5677fcc",
        "android_client_info": {
          "package_name": "com.ramdan.testyelpapp"
        }
      },
      "oauth_client": [
        {
          "client_id": "509903634469-8ef579r27udaca566jr8c5vdvgs5e0r6.apps.googleusercontent.com",
          "client_type": 3
        }
      ],
      "api_key": [
        {
          "current_key": "AIzaSyB5MqysJwZS6hrne3mGGYqGrrChwbb2inE"
        }
      ],
      "services": {
        "appinvite_service": {
          "other_platform_oauth_client": [
            {
              "client_id": "509903634469-8ef579r27udaca566jr8c5vdvgs5e0r6.apps.googleusercontent.com",
              "client_type": 3
            }
          ]
        }
      }
    }
  ],
  "configuration_version": "1"
}